Trb Clase 12
…
Filtrado Cu > 10

df_2 <- df1 |>
  filter(Cu <= 10)
df_2

## # A tibble: 398 x 14
##       id  Long   Lat     z    MO    Ca    Mg      K    Na  CICE    CE    Fe
##    <dbl> <dbl> <dbl> <dbl> <dbl> <dbl> <dbl>  <dbl> <dbl> <dbl> <dbl> <dbl>
##  1     1 -72.6  8.08   120  2.09  7.83 1.56  0.175  0.291  9.85 0.130 133. 
##  2     2 -72.6  8.08   119  1.65  3.95 0.771 0.496  0.136  5.36 0.126  29.7
##  3     3 -72.6  8.08   111  1.65  5.88 1.23  0.273  0.135  7.52 0.287 237. 
##  4     4 -72.6  8.08   114  2.48  5.62 1.13  0.217  0.163  7.13 0.415 331. 
##  5     5 -72.6  8.09   115  3.01 11.4  2.36  0.501  0.292 14.6  0.269 281. 
##  6     6 -72.6  8.09   109  1.93  7.49 1.56  0.244  0.115  9.41 0.410 258. 
##  7     7 -72.6  8.09   116  2.86 10.9  2.40  0.195  0.282 13.8  0.141 167. 
##  8     8 -72.6  8.10   109  2.20 12.1  2.73  0.0438 0.420 15.3  0.163  54.5
##  9     9 -72.6  8.10   109  2.64 15.7  5.54  0.265  0.454 22.9  0.173  96.4
## 10    10 -72.6  8.10   115  2.06  7.96 1.78  0.133  0.308 10.2  0.245 446. 
## # ... with 388 more rows, and 2 more variables: Cu <dbl>, Zn <dbl>
…
